Linear Regression
…
Property_Price_Train[which(Property_Price_Train$Sale_Price %in% outliers),]

## # A tibble: 61 x 81
##       Id Building_Class Zoning_Class Lot_Extent Lot_Size Road_Type Lane_Type
##    <dbl>          <dbl> <chr>             <dbl>    <dbl> <chr>     <chr>    
##  1    12             60 RLD                  85    11924 Paved     <NA>     
##  2    54             20 RLD                  68    50271 Paved     <NA>     
##  3    59             60 RLD                  66    13682 Paved     <NA>     
##  4   113             60 RLD                  77     9965 Paved     <NA>     
##  5   152             20 RLD                 107    13891 Paved     <NA>     
##  6   162             60 RLD                 110    13688 Paved     <NA>     
##  7   179             20 RLD                  63    17423 Paved     <NA>     
##  8   186             75 RMD                  90    22950 Paved     <NA>     
##  9   225             20 RLD                 103    13472 Paved     <NA>     
## 10   232             60 RLD                 174    15138 Paved     <NA>     
## # ... with 51 more rows, and 74 more variables: Property_Shape <chr>,
## #   Land_Outline <chr>, Utility_Type <chr>, Lot_Configuration <chr>,
## #   Property_Slope <chr>, Neighborhood <chr>, Condition1 <chr>,
## #   Condition2 <chr>, House_Type <chr>, House_Design <chr>,
## #   Overall_Material <dbl>, House_Condition <dbl>, Construction_Year <dbl>,
## #   Remodel_Year <dbl>, Roof_Design <chr>, Roof_Quality <chr>,
## #   Exterior1st <chr>, Exterior2nd <chr>, Brick_Veneer_Type <chr>,
## #   Brick_Veneer_Area <dbl>, Exterior_Material <chr>, Exterior_Condition <chr>,
## #   Foundation_Type <chr>, Basement_Height <chr>, Basement_Condition <chr>,
…
